{
  "paging": {
    "is_end": false,
    "total": 2197,
    "next": "http://www.zhihu.com/api/v4/news_specials/list?limit=10&offset=10",
    "previous": "http://www.zhihu.com/api/v4/news_specials/list?limit=10&offset=0"
  },
  "data": [
    {
      "view_count": 1418386,
      "followers_count": 43,
      "is_following": false,
      "title": "2024国家网络安全宣传周",
      "introduction": "2024年国家网络安全宣传周以「网络安全为人民，网络安全靠人民」为主题，将举办开幕式、网络安全技术高峰论坛主论坛暨粤港澳大湾区网络安全大会、网络安全博览会，集中发布一系列网络安全领域重要成果。同时将举行校园日、电信日、法治日、金融日、青少年日、个人信息保护日等系列主题日活动。",
      "section_list": [
        {
          "section_id": "1814303142386487297",
          "section_title": "官方稿件"
        },
        {
          "section_id": "1814301769079058432",
          "section_title": "宣传视频"
        },
        {
          "section_id": "1814297952828665856",
          "section_title": "宣传海报"
        },
        {
          "section_id": "1814311775564357633",
          "section_title": "网络安全"
        }
      ],
      "banner": "https://pic2.zhimg.com/100/v2-4cb676ecfc24da42feb6f8dba7d4c0d9_hd.png",
      "updated": 1726287986,
      "id": "1814297848247885824"
    },
    {
      "view_count": 6686299,
      "followers_count": 6,
      "is_following": false,
      "title": "2024中国网络文明大会",
      "introduction": " ",
      "section_list": [
        {
          "section_id": "1811816110498127872",
          "section_title": "网络文明生态共建"
        },
        {
          "section_id": "1811816332888514561",
          "section_title": "网络法治"
        },
        {
          "section_id": "1811816516645179393",
          "section_title": "网络辟谣"
        },
        {
          "section_id": "1811816662841835521",
          "section_title": "网络正能量传播"
        },
        {
          "section_id": "1811816944501923843",
          "section_title": "青少年网络安全保护"
        },
        {
          "section_id": "1811817073254473730",
          "section_title": "网络文艺与文化强国建设"
        }
      ],
      "banner": "https://pic3.zhimg.com/100/v2-ac34582ace91462c3452d452f85fd1e6_hd.png",
      "updated": 1724753501,
      "id": "1811814552964317187"
    },
    {
      "view_count": 546162,
      "followers_count": 82,
      "is_following": false,
      "title": "共建和谐亲子关系，助力儿童健康成长",
      "introduction": "和谐亲子关系有哪些特征？如何有效沟通建立和谐亲子关系？暑期来临，全国妇联社联中心联合知乎围绕“共建和谐亲子关系，助力儿童健康成长”这一主题，邀请相关领域专家行家联动女性社会组织开展交流分享，凝聚社会力量关爱服务儿童，共建和谐家庭。一起来参加吧~",
      "section_list": [
        {
          "section_id": "1795139678229381121",
          "section_title": "问答精选"
        },
        {
          "section_id": "1798723028823191552",
          "section_title": "相关问题 "
        }
      ],
      "banner": "https://pic3.zhimg.com/100/v2-94bc803b7ab6e0e9447630064aad4c6e_hd.png",
      "updated": 1722321518,
      "id": "1795139218252623872"
    },
    {
      "view_count": 3797699,
      "followers_count": 18,
      "is_following": false,
      "title": "网络中国节·端午丨和满中华 奋进九州",
      "introduction": "  ",
      "section_list": [
        {
          "section_id": "1782374463528009729",
          "section_title": "粽香探源"
        },
        {
          "section_id": "1782374581190823937",
          "section_title": "粽艺薪传"
        },
        {
          "section_id": "1782374631829655553",
          "section_title": "粽韵新篇"
        },
        {
          "section_id": "1782374679464370176",
          "section_title": "粽情家国"
        }
      ],
      "banner": "https://pic1.zhimg.com/100/v2-6ff5545fcb222801b52304375f780030_hd.png",
      "updated": 1717732197,
      "id": "1782373709593477120"
    },
    {
      "view_count": 52072501,
      "followers_count": 72,
      "is_following": false,
      "title": "互联保苗丨网络防护从我做起",
      "introduction": " ",
      "section_list": [
        {
          "section_id": "1809185396644524032",
          "section_title": "网络安全冷知识"
        },
        {
          "section_id": "1774846669131419648",
          "section_title": "网络安全环保"
        },
        {
          "section_id": "1774846789805264896",
          "section_title": "网络法制践行者"
        },
        {
          "section_id": "1774846850383638528",
          "section_title": "文明互联你我"
        },
        {
          "section_id": "1774846736458190848",
          "section_title": "科普在身边"
        }
      ],
      "banner": "https://pic1.zhimg.com/100/v2-2683e036b2a863a98d37f07047dc8540_hd.png",
      "updated": 1724123692,
      "id": "1774845716361523202"
    },
    {
      "view_count": 55855878,
      "followers_count": 164,
      "is_following": false,
      "title": "E企跟党走 阅读悦生活",
      "introduction": " ",
      "section_list": [
        {
          "section_id": "1765812365168533504",
          "section_title": "阅读给你答案"
        },
        {
          "section_id": "1765812172415127552",
          "section_title": "中国传统文化"
        },
        {
          "section_id": "1765812225246416896",
          "section_title": "中国近现代革命史"
        },
        {
          "section_id": "1765812302253551616",
          "section_title": "青年的自我成长"
        }
      ],
      "banner": "https://pic1.zhimg.com/100/v2-a70b5383623368eed1d2ab446562ca00_hd.png",
      "updated": 1713842500,
      "id": "1765812015929524224"
    },
    {
      "view_count": 797781,
      "followers_count": 47,
      "is_following": false,
      "title": "2024清明节丨忆满九州 情思华夏",
      "introduction": " ",
      "section_list": [
        {
          "section_id": "1758812907830280192",
          "section_title": "清明节习俗"
        },
        {
          "section_id": "1758812963559882753",
          "section_title": "清明祭故人"
        },
        {
          "section_id": "1758813013195546624",
          "section_title": "绿色祭扫"
        },
        {
          "section_id": "1758813071085350912",
          "section_title": "踏青赏春"
        }
      ],
      "banner": "https://pic2.zhimg.com/100/v2-ef880640d6c7dd84befcab4722320c79_hd.png",
      "updated": 1712128162,
      "id": "1758812756265066496"
    },
    {
      "view_count": 30237988,
      "followers_count": 128,
      "is_following": false,
      "title": "知乎上的四川",
      "introduction": "知乎上的四川",
      "section_list": [
        {
          "section_id": "1755552490500956160",
          "section_title": "四川生活"
        },
        {
          "section_id": "1755552592808419328",
          "section_title": "四川过春节"
        },
        {
          "section_id": "1755552637028974592",
          "section_title": "四川过春天"
        },
        {
          "section_id": "1755552696822992897",
          "section_title": "四川过夏天"
        }
      ],
      "banner": "https://pic1.zhimg.com/100/v2-a7556006256fbd78267bf95de518ead8_hd.png",
      "updated": 1716456607,
      "id": "1755552296522809344"
    },
    {
      "view_count": 44108511,
      "followers_count": 533,
      "is_following": false,
      "title": "筑梦现代化 共绘新图景",
      "introduction": " ",
      "section_list": [
        {
          "section_id": "1747672587361173504",
          "section_title": "聚焦两会"
        },
        {
          "section_id": "1748319114500956160",
          "section_title": "政府工作报告"
        },
        {
          "section_id": "1747379943917490177",
          "section_title": "两会热议"
        },
        {
          "section_id": "1747393101021171713",
          "section_title": "两会热词"
        },
        {
          "section_id": "1747379762920583170",
          "section_title": "两会声音"
        },
        {
          "section_id": "1747384072702447616",
          "section_title": "两会科普"
        }
      ],
      "banner": "https://pic3.zhimg.com/100/v2-177d867d2f8a6c524c435c1293a6c7ea_hd.png",
      "updated": 1710126826,
      "id": "1747379177022484480"
    },
    {
      "view_count": 17764671,
      "followers_count": 85,
      "is_following": false,
      "title": "龙腾九州 福满京华",
      "introduction": " ",
      "section_list": [
        {
          "section_id": "1744041440827588608",
          "section_title": "元宵喜乐"
        },
        {
          "section_id": "1735701045710450688",
          "section_title": "团圆乐事"
        },
        {
          "section_id": "1735701146944172032",
          "section_title": "祈福迎祥"
        },
        {
          "section_id": "1735701461890318336",
          "section_title": "春满人间"
        },
        {
          "section_id": "1735701519196844032",
          "section_title": "年货大集"
        }
      ],
      "banner": "https://pic2.zhimg.com/100/v2-2c6f40ee00546ec179f3a078fee98995_hd.png",
      "updated": 1725443941,
      "id": "1735694700215025664"
    }
  ]
}